module gitlab.com/bichon-project/tview

go 1.18

require (
	github.com/gdamore/tcell/v2 v2.6.0
	github.com/lucasb-eyer/go-colorful v1.2.0
	github.com/mattn/go-runewidth v0.0.14
	github.com/rivo/uniseg v0.4.3
)

require (
	github.com/gdamore/encoding v1.0.0 // indirect
	golang.org/x/sys v0.5.0 // indirect
	golang.org/x/term v0.5.0 // indirect
	golang.org/x/text v0.7.0 // indirect
)
